Chapter 11 Emner fra eksperimental design | Analyse og visualisering af biologiske datasæt - 2023
…
Derfor, selvom kvinder ikke havde en lavere sandsynlighed for at blive optaget end mænd i deres fortrukne fag, var antallet af kvinder, der blev optaget i det hele taget på tværs af alle afdelinger, faktisk lavere end antallet af mænd.

11.5 Case studies: Anscombes kvartet

(Se også videoressourcer Del 3).

Anscombes kvartet (se også https://en.wikipedia.org/wiki/Anscombe%27s_quartet) er et meget nyttigt og berømt eksempel fra 1973, der fremhæver vigtigheden af at visualisere datasættet. Vi kan hente dataene fra linket nedenfor - der er x-værdier og y-værdier, som kan anvendes til at lave et scatterplot, og der er også set, der refererer til fire forskellige datasæt (derfor ‘kvartet’).

anscombe <- read.table("https://www.dropbox.com/s/mlt7crdik3eih9a/anscombe_long_format.txt?dl=1",header=T)
anscombe <- anscombe %>% tibble()
anscombe

## # A tibble: 44 × 3
##      set     x     y
##    <int> <int> <dbl>
##  1     1    10  8.04
##  2     1     8  6.95
##  3     1    13  7.58
##  4     1     9  8.81
##  5     1    11  8.33
##  6     1    14  9.96
##  7     1     6  7.24
##  8     1     4  4.26
##  9     1    12 10.8 
## 10     1     7  4.82
## # ℹ 34 more rows
…
norm.cts <- read.table("https://www.dropbox.com/s/3vhwnsnhzsy35nd/bottomly_count_table_normalised.txt?dl=1")
coldata <- read.table("https://www.dropbox.com/s/el3sm9ncvzbq6xf/bottomly_phenodata.txt?dl=1")
coldata <- coldata %>% tibble()
norm.cts <- as_tibble(norm.cts,rownames="gene")

Jeg begynder med at vælge kun de rækker, der har mindst 50 counts, for at undgå gener med lave ekspressionsniveauer. Det næste jeg gør er at transformere dataene til logaritmisk form (funktion map_if()) for at opnå en bedre fordeling i datasættet.

#normalisere og filtrere dataene
norm.cts <- norm.cts %>% 
  filter(rowSums(norm.cts %>% select(-gene))>50) %>% 
  map_if(is.numeric,~log(.x+1)) %>% as_tibble()

norm.cts

## # A tibble: 10,193 × 22
##    gene    SRX033480 SRX033488 SRX033481 SRX033489 SRX033482 SRX033490 SRX033483
##    <chr>       <dbl>     <dbl>     <dbl>     <dbl>     <dbl>     <dbl>     <dbl>
##  1 ENSMUS…      6.35      6.32      6.21      6.29      6.31      6.27      6.30
##  2 ENSMUS…      3.51      3.56      3.57      3.27      2.99      3.61      3.56
##  3 ENSMUS…      3.19      3.50      3.08      3.21      3.14      3.09      3.22
##  4 ENSMUS…      6.69      6.48      6.38      6.35      6.39      6.34      6.50
##  5 ENSMUS…      6.05      6.37      6.17      6.26      6.16      6.06      6.13
##  6 ENSMUS…      2.89      2.94      3.16      3.21      3.77      3.30      3.11
##  7 ENSMUS…      3.42      3.12      3.86      4.36      3.77      3.99      4.24
##  8 ENSMUS…      3.42      2.94      3.52      3.41      3.57      3.60      2.99
##  9 ENSMUS…      5.02      4.98      4.49      4.27      4.67      4.35      4.81
## 10 ENSMUS…      5.13      4.88      4.97      4.76      4.82      4.79      4.96
## # ℹ 10,183 more rows
## # ℹ 14 more variables: SRX033476 <dbl>, SRX033478 <dbl>, SRX033479 <dbl>,
## #   SRX033472 <dbl>, SRX033473 <dbl>, SRX033474 <dbl>, SRX033475 <dbl>,
## #   SRX033491 <dbl>, SRX033484 <dbl>, SRX033492 <dbl>, SRX033485 <dbl>,
## #   SRX033493 <dbl>, SRX033486 <dbl>, SRX033494 <dbl>

Så der er omkring 10.000 gener i rækkerne, og der er 21 forskellige prøver, der spreder sig over kolonnerne. Vi har også nogle prøveoplysninger - der er to forskellige stammer af mus og også forskellige batches, som vi gerne vil undersøge nærmere.

coldata

## # A tibble: 21 × 5
##    column    num.tech.reps strain   batch lane.number
##    <chr>             <int> <chr>    <int>       <int>
##  1 SRX033480             1 C57BL.6J     6           1
##  2 SRX033488             1 C57BL.6J     7           1
##  3 SRX033481             1 C57BL.6J     6           2
##  4 SRX033489             1 C57BL.6J     7           2
##  5 SRX033482             1 C57BL.6J     6           3
##  6 SRX033490             1 C57BL.6J     7           3
##  7 SRX033483             1 C57BL.6J     6           5
##  8 SRX033476             1 C57BL.6J     4           6
##  9 SRX033478             1 C57BL.6J     4           7
## 10 SRX033479             1 C57BL.6J     4           8
## # ℹ 11 more rows
…
rot_matrix <- pca_fit %>%
  tidy(matrix = "rotation") 

Vi vil gerne lave et plot af rotationsmatricen, men først vil vi gerne tilføje prøveoplysningerne med left_join, så vi kan se de forskellige batches eller stammer. Begge dataframes har en kolonne, der hedder column, som refererer til prøvenavne, så jeg forbinder efter column her.

rot_matrix <- rot_matrix  %>% 
  left_join(coldata,by="column")

Brug pivot_wider() til at få det i bred format, så vi kan plotte “PC1” og “PC2” i et scatter plot:

rot_matrix_wide <- rot_matrix %>% 
  pivot_wider(names_from = "PC", names_prefix = "PC", values_from = "value")
rot_matrix_wide

## # A tibble: 21 × 26
##    column num.tech.reps strain batch lane.number    PC1      PC2     PC3     PC4
##    <chr>          <int> <chr>  <int>       <int>  <dbl>    <dbl>   <dbl>   <dbl>
##  1 SRX03…             1 C57BL…     6           1 -0.217  0.262   0.0200  -0.508 
##  2 SRX03…             1 C57BL…     7           1 -0.219  0.243   0.00586  0.166 
##  3 SRX03…             1 C57BL…     6           2 -0.217  0.303   0.0153  -0.237 
##  4 SRX03…             1 C57BL…     7           2 -0.219  0.246   0.00799  0.178 
##  5 SRX03…             1 C57BL…     6           3 -0.217  0.259   0.0974  -0.113 
##  6 SRX03…             1 C57BL…     7           3 -0.219  0.234   0.00385  0.209 
##  7 SRX03…             1 C57BL…     6           5 -0.218  0.237   0.0303  -0.179 
##  8 SRX03…             1 C57BL…     4           6 -0.217  0.00524 0.463    0.376 
##  9 SRX03…             1 C57BL…     4           7 -0.218  0.0901  0.305    0.0651
## 10 SRX03…             1 C57BL…     4           8 -0.218 -0.110   0.434   -0.161 
## # ℹ 11 more rows
## # ℹ 17 more variables: PC5 <dbl>, PC6 <dbl>, PC7 <dbl>, PC8 <dbl>, PC9 <dbl>,
## #   PC10 <dbl>, PC11 <dbl>, PC12 <dbl>, PC13 <dbl>, PC14 <dbl>, PC15 <dbl>,
## #   PC16 <dbl>, PC17 <dbl>, PC18 <dbl>, PC19 <dbl>, PC20 <dbl>, PC21 <dbl>
…
