Chapter 7 Functional programming med purrr-pakken | Analyse og visualisering af biologiske datasæt - 2023
…
Jo mere kompleks en funktion bliver, desto mere mening giver det at definere den uden for map()-funktionen:

my_function <- ~(.x - mean(.x))^2 + 0.5*(.x - sd(.x))^2 #en lang, meningsløs funktion

iris %>%
  select(-Species) %>%
  map_df(my_function) #beregn my_function for hver kolonne og output en dataramme 

## # A tibble: 150 × 4
##    Sepal.Length Sepal.Width Petal.Length Petal.Width
##           <dbl>       <dbl>        <dbl>       <dbl>
##  1         9.68        4.89         5.63       1.16 
##  2         9.18        3.29         5.63       1.16 
##  3         8.80        3.84         6.15       1.16 
##  4         8.66        3.55         5.13       1.16 
##  5         9.41        5.30         5.63       1.16 
##  6        10.6         6.71         4.24       0.705
##  7         8.66        4.51         5.63       0.916
##  8         9.41        4.51         5.13       1.16 
##  9         8.46        3.06         5.63       1.16 
## 10         9.18        3.55         5.13       1.43 
## # … with 140 more rows
…
Der er flere map funktion der tager flere input fk. pmap - jeg har ikke tid til at dække dem men du kan godt læse om dem hvis du har bruge for dem: https://purrr.tidyverse.org/reference/map2.html

7.5.2 Transformering af numeriske variabler

Som en sidste bemærkning, her er en nyttig variant af map - her kan man udføre en operation på kun bestemte variabler - for eksempel anvender jeg i det følgende funktionen log2() på alle numeriske variabler. Bemærk, at man er nødt til at anvende as_tibble() igen bagefter (som kun fungerer, hvis alle variabler stadig har samme længde efter map_if()):

eukaryotes %>% map_if(is.numeric,~log2(.x)) %>% as_tibble()

## # A tibble: 11,508 × 19
##    organism_…¹ taxid biopr…² biopr…³ group subgr…⁴ size_mb    gc assem…⁵ repli…⁶
##    <chr>       <dbl> <chr>     <dbl> <chr> <chr>     <dbl> <dbl> <chr>   <chr>  
##  1 Pyropia ye…  11.4 PRJNA5…   19.2  Other Other      6.75  6.02 GCA_00… chromo…
##  2 Emiliania …  18.1 PRJNA7…   16.2  Prot… Other …    7.39  6.01 GCA_00… <NA>   
##  3 Arabidopsi…  11.9 PRJNA1…   13.4  Plan… Land P…    6.90  5.17 GCA_00… chromo…
##  4 Glycine max  11.9 PRJNA1…   14.3  Plan… Land P…    9.94  5.13 GCA_00… chromo…
##  5 Medicago t…  11.9 PRJNA1…   13.4  Plan… Land P…    8.69  5.09 GCA_00… chromo…
##  6 Solanum ly…  12.0 PRJNA1…    6.89 Plan… Land P…    9.69  5.16 GCA_00… chromo…
##  7 Hordeum vu…  16.8 PRJEB3…   19.1  Plan… Land P…   12.1   5.48 GCA_90… chromo…
##  8 Oryza sati…  15.3 PRJNA1…   13.6  Plan… Land P…    8.55  5.45 GCA_00… chromo…
##  9 Triticum a…  12.2 PRJNA3…   18.6  Plan… Land P…   13.9   5.53 GCA_00… chromo…
## 10 Zea mays     12.2 PRJNA1…   13.4  Plan… Land P…   11.1   5.55 GCA_00… chromo…
## # … with 11,498 more rows, 9 more variables: wgs <chr>, scaffolds <dbl>,
## #   genes <dbl>, proteins <dbl>, release_date <date>, modify_date <date>,
## #   status <chr>, center <chr>, biosample_accession <chr>, and abbreviated
## #   variable names ¹​organism_name, ²​bioproject_accession, ³​bioproject_id,
## #   ⁴​subgroup, ⁵​assembly_accession, ⁶​replicons
…
