Chapter 12 Maskinslæring i tidyverse | Analyse og visualisering af biologiske datasæt - 2023
…
titanic <- titanic_train

titanic <- titanic %>% drop_na() %>% as_tibble() %>%
             mutate(Survived = factor(if_else(Survived == 1, "yes", "no"),levels=c("yes","no"))) %>%
             mutate(Pclass = recode(Pclass, `1`="first",`2`="second",`3`="third")) %>%
             mutate(Pclass = as_factor(Pclass),
                    Sex = as_factor(Sex),
                    Port = as_factor(Embarked),
                    Solo = if_else(SibSp + Parch == 0, "yes", "no")) %>%
 select(Survived, Pclass, Sex, Age, Solo, Port, Fare)

titanic

## # A tibble: 714 × 7
##    Survived Pclass Sex      Age Solo  Port   Fare
##    <fct>    <fct>  <fct>  <dbl> <chr> <fct> <dbl>
##  1 no       third  male      22 no    S      7.25
##  2 yes      first  female    38 no    C     71.3 
##  3 yes      third  female    26 yes   S      7.92
##  4 yes      first  female    35 no    S     53.1 
##  5 no       third  male      35 yes   S      8.05
##  6 no       first  male      54 yes   S     51.9 
##  7 no       third  male       2 no    S     21.1 
##  8 yes      third  female    27 no    S     11.1 
##  9 yes      second female    14 no    C     30.1 
## 10 yes      third  female     4 no    S     16.7 
## # ℹ 704 more rows
…
my_prediction_function <-  ~predict(.x, .y)$predictions

cv_prep_rf <- cv_models_rf %>% 
  mutate(
    actual = map(validate, ~.x %>% pull(Survived)), #de faktiske "yes" eller "no"
    predicted = map2(.x = model, .y = validate, my_prediction_function) #forudsigelserne af "yes" eller "no"
  )

Nu lad os kigge på vores forudsigelser (“yes” eller “no”) sammenlignet med de virkelige værdier (“yes” eller “no”) i variablen Survived, for hver af de fem valideringssæt:

predictions_df <- cv_prep_rf %>% select(id, actual, predicted) %>% unnest(c(actual, predicted)) 
predictions_df

## # A tibble: 535 × 3
##    id    actual predicted
##    <chr> <fct>  <fct>    
##  1 Fold1 yes    yes      
##  2 Fold1 yes    yes      
##  3 Fold1 no     no       
##  4 Fold1 yes    yes      
##  5 Fold1 no     no       
##  6 Fold1 yes    yes      
##  7 Fold1 yes    no       
##  8 Fold1 no     no       
##  9 Fold1 yes    yes      
## 10 Fold1 yes    yes      
## # ℹ 525 more rows
…
12.4.5 Parameterjustering

I funktionen ranger var der faktisk nogle parametre, der kan have indflydelse på modellens forudsigelser til sidst - én af dem er for eksempel num.trees - hvis man bruger fx. 100 træer, får man sandsynligvis bedre resultater end hvis man anvender kun et træ. En anden parameter, som vi angav som “default” i ovenstående analyse, er mtry. Den angiver hvor mange variabler vi skal inddrage i en enkelt beregning i træerne (det inddrager mere tilfældighed i algoritmen og undgår, at 1-2 variabler har for meget indflydelse på resultaterne).
Vi vil gerne prøve de forskellige værdier for mtry i modellen og se, hvilken værdi der giver de bedste resultater. I tidyr-pakken er der en nyttig funktion crossing, der laver kopier af de forskellige folds datasæt, én til hver mulig værdi af mtry:

# Forbered justering af dine cross validation folds ved at variere mtry
cv_tune <- cv_data %>%
  crossing(mtry = c(2:6))

cv_tune

## # A tibble: 25 × 5
##    splits            id    train              validate            mtry
##    <list>            <chr> <list>             <list>             <int>
##  1 <split [428/107]> Fold1 <tibble [428 × 7]> <tibble [107 × 7]>     2
##  2 <split [428/107]> Fold1 <tibble [428 × 7]> <tibble [107 × 7]>     3
##  3 <split [428/107]> Fold1 <tibble [428 × 7]> <tibble [107 × 7]>     4
##  4 <split [428/107]> Fold1 <tibble [428 × 7]> <tibble [107 × 7]>     5
##  5 <split [428/107]> Fold1 <tibble [428 × 7]> <tibble [107 × 7]>     6
##  6 <split [428/107]> Fold2 <tibble [428 × 7]> <tibble [107 × 7]>     2
##  7 <split [428/107]> Fold2 <tibble [428 × 7]> <tibble [107 × 7]>     3
##  8 <split [428/107]> Fold2 <tibble [428 × 7]> <tibble [107 × 7]>     4
##  9 <split [428/107]> Fold2 <tibble [428 × 7]> <tibble [107 × 7]>     5
## 10 <split [428/107]> Fold2 <tibble [428 × 7]> <tibble [107 × 7]>     6
## # ℹ 15 more rows
…
Og udtrækker predictions med predict ligesom i ovenstående:

cv_prep_rf <- cv_models_rf %>% 
  mutate(
    actual = map(validate, ~.x$Survived),
    predicted = map2(.x = model, .y = validate, ~predict(.x, .y)$predictions)
  )

Nu laver jeg en dataframe ligesom i ovenstående som viser mine predictions - men denne gange har jeg predictions over både min folds og de forskellige værdier for “mtry”:

predictions_df <- cv_prep_rf %>% select(id,mtry,actual,predicted) %>% unnest(cols=c(actual,predicted))
predictions_df

## # A tibble: 2,675 × 4
##    id     mtry actual predicted
##    <chr> <int> <fct>  <fct>    
##  1 Fold1     2 yes    yes      
##  2 Fold1     2 yes    yes      
##  3 Fold1     2 no     no       
##  4 Fold1     2 yes    yes      
##  5 Fold1     2 no     no       
##  6 Fold1     2 yes    yes      
##  7 Fold1     2 yes    no       
##  8 Fold1     2 no     no       
##  9 Fold1     2 yes    yes      
## 10 Fold1     2 yes    yes      
## # ℹ 2,665 more rows
…
