Chapter 10 Principal component analysis (PCA) | Analyse og visualisering af biologiske datasæt - 2023
…
Lave et plot af datasættet ud fra de første to principal components

Se, hvor meget af variansen i datasættet der er forklaret af de forskellige komponenter

Bruge rotationsmatricen til at se, hvordan variablerne forholder sig i forhold til hinanden

For at lave vores plot af principal components kan vi benytte funktionen augment(), ligesom vi gjorde i vores sidste lektion med k-means clustering. Her får vi værdierne for hver af de fire principal components sammen med det oprindelige datasæt.

pca_fit_augment <- pca_fit %>% 
  augment(penguins) # tilføj det originale datasæt igen

pca_fit_augment

## # A tibble: 333 × 13
##    .rownames species island    bill_length_mm bill_depth_mm flipper_length_mm
##    <chr>     <fct>   <fct>              <dbl>         <dbl>             <int>
##  1 1         Adelie  Torgersen           39.1          18.7               181
##  2 2         Adelie  Torgersen           39.5          17.4               186
##  3 3         Adelie  Torgersen           40.3          18                 195
##  4 4         Adelie  Torgersen           36.7          19.3               193
##  5 5         Adelie  Torgersen           39.3          20.6               190
##  6 6         Adelie  Torgersen           38.9          17.8               181
##  7 7         Adelie  Torgersen           39.2          19.6               195
##  8 8         Adelie  Torgersen           41.1          17.6               182
##  9 9         Adelie  Torgersen           38.6          21.2               191
## 10 10        Adelie  Torgersen           34.6          21.1               198
## # ℹ 323 more rows
## # ℹ 7 more variables: body_mass_g <int>, sex <fct>, year <fct>,
## #   .fittedPC1 <dbl>, .fittedPC2 <dbl>, .fittedPC3 <dbl>, .fittedPC4 <dbl>
…
